<?xml version="1.0" encoding="utf-8"?>
<!-- Generator: Adobe Illustrator 23.0.0, SVG Export Plug-In . SVG Version: 6.00 Build 0)  -->
<svg version="1.1" id="Capa_1" xmlns="http://www.w3.org/2000/svg" xmlns:xlink="http://www.w3.org/1999/xlink" x="0px" y="0px"
	 viewBox="0 0 260 260" style="enable-background:new 0 0 260 260;" xml:space="preserve">
<g>
	<path d="M206.6,152.8c-5-2.6-6-8.1-2.3-12.3l20.1-22.5c3.8-4.2,2.2-7.4-3.4-7.2l-13.4,0.6c-5.6,0.3-9.3-4-8.1-9.5l6.2-29.5
		c1.2-5.5-1.8-7.5-6.5-4.5L188,75.1c-4.7,3-10,1.1-11.8-4.2l-9.4-28.7c-1.8-5.4-5.3-5.6-7.9-0.6l-6.1,11.9c-2.6,5-8.1,6-12.3,2.3
		L118,35.5c-4.2-3.8-7.4-2.2-7.2,3.4l0.6,13.3c0.3,5.6-4,9.3-9.5,8.1l-29.6-6.2c-5.5-1.2-7.5,1.8-4.5,6.5L75.1,72
		c3,4.7,1.2,10-4.2,11.8l-28.7,9.4c-5.4,1.7-5.6,5.3-0.6,7.9l11.9,6.1c5,2.6,6,8.1,2.3,12.3L35.5,142c-3.8,4.2-2.2,7.4,3.4,7.2
		l13.4-0.6c5.6-0.3,9.3,4,8.1,9.5l-6.2,29.5c-1.2,5.5,1.8,7.5,6.5,4.5l11.3-7.2c4.7-3,10-1.1,11.8,4.2l9.4,28.7
		c1.8,5.4,5.3,5.6,7.9,0.6l6.1-11.9c2.6-5,8.1-6,12.3-2.3l22.5,20.1c4.2,3.8,7.4,2.2,7.2-3.4l-0.6-13.3c-0.3-5.6,4-9.3,9.5-8.1
		l29.6,6.2c5.5,1.2,7.5-1.8,4.5-6.5l-7.2-11.3c-3-4.7-1.1-10,4.2-11.8l28.7-9.4c5.4-1.7,5.6-5.3,0.6-7.9L206.6,152.8z M129,180.5
		c-27.6,0-50-22.4-50-50c0-27.6,22.4-50,50-50c27.6,0,50,22.4,50,50C179.1,158.1,156.6,180.5,129,180.5z"/>
	<path d="M129,90.7c-22,0-39.8,17.8-39.8,39.8c0,21.9,17.9,39.8,39.8,39.8c22,0,39.8-17.9,39.8-39.8C168.8,108.5,151,90.7,129,90.7z
		 M129,142c-6.3,0-11.5-5.1-11.5-11.5c0-6.3,5.1-11.5,11.5-11.5c6.3,0,11.5,5.1,11.5,11.5C140.5,136.8,135.4,142,129,142z"/>
</g>
</svg>
